$TTL 3600   	;  1 hour
@            IN SOA  ns1.tongyi.com. admin.tongyi.com. (
                                2011070701        ; serial
                                10800      ; refresh (3 hours)
                                900        ; retry (15 minutes)
                                604800     ; expire (1 week)
                                3600       ; minimum (1 hour)
                                )
$TTL 	2M
@       IN      NS      ns1.tongyi.com.
@       IN      NS      ns2.tongyi.com.

@       IN      MX      5	mx1.tongyi.me.

ns1	IN	A	61.135.205.153
ns2	IN	A	61.135.205.150

mx1	IN	A	61.135.205.158

@       IN      A       61.135.205.158

mail    IN      A       61.135.205.158
smtp    IN      A       61.135.205.158
pop     IN      A	61.135.205.158
imap	IN	A	61.135.205.158
www	IN	A	61.135.205.158

tongyi.me. 	IN      TXT     "v=spf1 ip4:61.135.205.158 a mx mx:mail.tongyi.me ~all"
