$ORIGIN .
$TTL 3600	; 1 hour
tongyi.me		IN SOA	ns1.tongyi.com. admin.tongyi.com. (
				2011070701 ; serial
				10800      ; refresh (3 hours)
				900        ; retry (15 minutes)
				604800     ; expire (1 week)
				3600       ; minimum (1 hour)
				)
$TTL 120	; 2 minutes
			NS	ns1.tongyi.com.
			NS	ns2.tongyi.com.
			A	61.135.205.158
			MX	5 mx1.tongyi.me.
			TXT	"v=spf1 ip4:61.135.205.158 a mx mx:mail.tongyi.me ~all"
$ORIGIN tongyi.me.
imap			A	61.135.205.158
mail			A	61.135.205.158
mx1			A	61.135.205.158
ns1			A	61.135.205.153
ns2			A	61.135.205.150
pop			A	61.135.205.158
smtp			A	61.135.205.158
www			A	61.135.205.158
